{
    "name": "ericw-cg.simplecarousel",
    "rootNamespace": "",
    "references": [
        "Unity.TextMeshPro",
        "trinary-software.mec"
    ],
    "includePlatforms": [],
    "excludePlatforms": [],
    "allowUnsafeCode": false,
    "overrideReferences": false,
    "precompiledReferences": [],
    "autoReferenced": true,
    "defineConstraints": [],
    "versionDefines": [],
    "noEngineReferences": false
}